%YAML 1.1
%TAG !u! tag:unity3d.com,2011:
--- !u!114 &11400000
MonoBehaviour:
  m_ObjectHideFlags: 0
  m_CorrespondingSourceObject: {fileID: 0}
  m_PrefabInstance: {fileID: 0}
  m_PrefabAsset: {fileID: 0}
  m_GameObject: {fileID: 0}
  m_Enabled: 1
  m_EditorHideFlags: 0
  m_Script: {fileID: 11500000, guid: 07266feed93fba84ea63ddfb6b158ed0, type: 3}
  m_Name: AkWwiseProjectData
  m_EditorClassIdentifier: 
  AcousticTextureWwu:
  - PhysicalPath: Virtual Acoustics\Default Work Unit.wwu
    ParentPhysicalPath: 
    guid: 80e82688bcd28f40be7f576405b7d0a7
    GuidInternal: 
    m_lastTime: -8586277494352333252
    List: []
  - PhysicalPath: Virtual Acoustics\Factory Reflect Acoustic Textures.wwu
    ParentPhysicalPath: 
    guid: 6b663d46a83ca54f8b4a5fef12b883f6
    GuidInternal: 
    m_lastTime: -8586277496128484160
    List:
    - name: Acoustic_Banner
      guid: f2532d2fccda8e408b8898b1b52a26d6
      id: 4168643977
      PathAndIcons:
      - ElementName: Factory Reflect Acoustic Textures
        ObjectType: 12
      - ElementName: Textures
        ObjectType: 4
      - ElementName: Acoustic_Banner
        ObjectType: 15
      Path: Factory Reflect Acoustic Textures\Textures\Acoustic_Banner
    - name: Anechoic
      guid: 32c20a8be202de4ebeacfdd1a900e3ed
      id: 1873957695
      PathAndIcons:
      - ElementName: Factory Reflect Acoustic Textures
        ObjectType: 12
      - ElementName: Textures
        ObjectType: 4
      - ElementName: Anechoic
        ObjectType: 15
      Path: Factory Reflect Acoustic Textures\Textures\Anechoic
    - name: Brick
      guid: a9a586b004f2534ca838bdb18b18f6d6
      id: 504532776
      PathAndIcons:
      - ElementName: Factory Reflect Acoustic Textures
        ObjectType: 12
      - ElementName: Textures
        ObjectType: 4
      - ElementName: Brick
        ObjectType: 15
      Path: Factory Reflect Acoustic Textures\Textures\Brick
    - name: Carpet
      guid: 8975223456dc604296c4b9f4b669092b
      id: 2412606308
      PathAndIcons:
      - ElementName: Factory Reflect Acoustic Textures
        ObjectType: 12
      - ElementName: Textures
        ObjectType: 4
      - ElementName: Carpet
        ObjectType: 15
      Path: Factory Reflect Acoustic Textures\Textures\Carpet
    - name: Concrete
      guid: 001cf85c9628e04aaf7c3080bdaba682
      id: 841620460
      PathAndIcons:
      - ElementName: Factory Reflect Acoustic Textures
        ObjectType: 12
      - ElementName: Textures
        ObjectType: 4
      - ElementName: Concrete
        ObjectType: 15
      Path: Factory Reflect Acoustic Textures\Textures\Concrete
    - name: Cork_Tiles
      guid: 19c9d2305f92434189063dbb3c4ae5e2
      id: 3195498748
      PathAndIcons:
      - ElementName: Factory Reflect Acoustic Textures
        ObjectType: 12
      - ElementName: Textures
        ObjectType: 4
      - ElementName: Cork_Tiles
        ObjectType: 15
      Path: Factory Reflect Acoustic Textures\Textures\Cork_Tiles
    - name: Curtains
      guid: 339ee6f8975c6849b508a1535f2d66e8
      id: 2928161104
      PathAndIcons:
      - ElementName: Factory Reflect Acoustic Textures
        ObjectType: 12
      - ElementName: Textures
        ObjectType: 4
      - ElementName: Curtains
        ObjectType: 15
      Path: Factory Reflect Acoustic Textures\Textures\Curtains
    - name: Drywall
      guid: f4e3a4680b4c8746a8b8a84db93dbc8f
      id: 3670307564
      PathAndIcons:
      - ElementName: Factory Reflect Acoustic Textures
        ObjectType: 12
      - ElementName: Textures
        ObjectType: 4
      - ElementName: Drywall
        ObjectType: 15
      Path: Factory Reflect Acoustic Textures\Textures\Drywall
    - name: Fabric
      guid: 32d581836edbed4ea7a3bc7b0a0b8ba8
      id: 1970351858
      PathAndIcons:
      - ElementName: Factory Reflect Acoustic Textures
        ObjectType: 12
      - ElementName: Textures
        ObjectType: 4
      - ElementName: Fabric
        ObjectType: 15
      Path: Factory Reflect Acoustic Textures\Textures\Fabric
    - name: Mountain
      guid: 313793c51a00b44a98dd9b033a8c8eab
      id: 513139656
      PathAndIcons:
      - ElementName: Factory Reflect Acoustic Textures
        ObjectType: 12
      - ElementName: Textures
        ObjectType: 4
      - ElementName: Mountain
        ObjectType: 15
      Path: Factory Reflect Acoustic Textures\Textures\Mountain
    - name: Tile
      guid: c4da82a82a13b747ba9db9907ba29cc0
      id: 2637588553
      PathAndIcons:
      - ElementName: Factory Reflect Acoustic Textures
        ObjectType: 12
      - ElementName: Textures
        ObjectType: 4
      - ElementName: Tile
        ObjectType: 15
      Path: Factory Reflect Acoustic Textures\Textures\Tile
    - name: Wood
      guid: 96bcff1fe76f9e48ba6c7c14a71391ae
      id: 2058049674
      PathAndIcons:
      - ElementName: Factory Reflect Acoustic Textures
        ObjectType: 12
      - ElementName: Textures
        ObjectType: 4
      - ElementName: Wood
        ObjectType: 15
      Path: Factory Reflect Acoustic Textures\Textures\Wood
    - name: Wood_Bright
      guid: e5d1857ba2c1634e9a13cec54b641adc
      id: 4262522749
      PathAndIcons:
      - ElementName: Factory Reflect Acoustic Textures
        ObjectType: 12
      - ElementName: Textures
        ObjectType: 4
      - ElementName: Wood_Bright
        ObjectType: 15
      Path: Factory Reflect Acoustic Textures\Textures\Wood_Bright
    - name: Wood_Deep
      guid: 8e474652dac50c4ea0dec98d1479529a
      id: 1755085759
      PathAndIcons:
      - ElementName: Factory Reflect Acoustic Textures
        ObjectType: 12
      - ElementName: Textures
        ObjectType: 4
      - ElementName: Wood_Deep
        ObjectType: 15
      Path: Factory Reflect Acoustic Textures\Textures\Wood_Deep
  AuxBusWwu:
  - PhysicalPath: Master-Mixer Hierarchy\Default Work Unit.wwu
    ParentPhysicalPath: 
    guid: 88584b7b407ff54ea53f028668deb8a9
    GuidInternal: 
    m_lastTime: -8586229594071616781
    List: []
  BankWwu:
  - PhysicalPath: SoundBanks\Default Work Unit.wwu
    ParentPhysicalPath: 
    guid: 33eecef062c7784ea4723ddcc8ae4f12
    GuidInternal: 
    m_lastTime: -8586277424162516610
    List:
    - name: main
      guid: 9afc7199874e0a4aadce5e6124744ecc
      id: 3161908922
      PathAndIcons:
      - ElementName: Default Work Unit
        ObjectType: 12
      - ElementName: main
        ObjectType: 7
      Path: Default Work Unit\main
  EventWwu:
  - PhysicalPath: Events\Default Work Unit.wwu
    ParentPhysicalPath: 
    guid: 64c5eb821140e94cbad904b7003c5056
    GuidInternal: 
    m_lastTime: -8586194460794719319
    List:
    - name: ambiente
      guid: 99ae36abc5b7a44bb25adf6cef398615
      id: 4095160060
      PathAndIcons:
      - ElementName: Default Work Unit
        ObjectType: 12
      - ElementName: ambiente
        ObjectType: 3
      Path: Default Work Unit\ambiente
      maxAttenuation: 0
      maxDuration: -1
      minDuration: -1
    - name: arco_ataque
      guid: a19ccf56e74a4342a2dc43de922e4e0e
      id: 2020804282
      PathAndIcons:
      - ElementName: Default Work Unit
        ObjectType: 12
      - ElementName: arco_ataque
        ObjectType: 3
      Path: Default Work Unit\arco_ataque
      maxAttenuation: 0
      maxDuration: 615241
      minDuration: 547485
    - name: arco_cargando
      guid: 8a5031b4e7ad3445b417ed5e00fe68bc
      id: 1080128838
      PathAndIcons:
      - ElementName: Default Work Unit
        ObjectType: 12
      - ElementName: arco_cargando
        ObjectType: 3
      Path: Default Work Unit\arco_cargando
      maxAttenuation: 0
      maxDuration: 3283320
      minDuration: 635481
    - name: ataque_melee_1
      guid: f1f19b22a50dd74f88278679edfe00ae
      id: 2784470079
      PathAndIcons:
      - ElementName: Default Work Unit
        ObjectType: 12
      - ElementName: ataque_melee_1
        ObjectType: 3
      Path: Default Work Unit\ataque_melee_1
      maxAttenuation: 0
      maxDuration: 376304
      minDuration: 344674
    - name: ataque_melee_2
      guid: 31115dc485118b40962074ebf8e84ebc
      id: 2784470076
      PathAndIcons:
      - ElementName: Default Work Unit
        ObjectType: 12
      - ElementName: ataque_melee_2
        ObjectType: 3
      Path: Default Work Unit\ataque_melee_2
      maxAttenuation: 0
      maxDuration: 0
      minDuration: 0
    - name: Attack
      guid: ff734980c592584cbcdfb5c0acf29033
      id: 180661997
      PathAndIcons:
      - ElementName: Default Work Unit
        ObjectType: 12
      - ElementName: Attack
        ObjectType: 3
      Path: Default Work Unit\Attack
      maxAttenuation: 0
      maxDuration: 376304
      minDuration: 344674
    - name: BgMusic
      guid: 23a22ad3b40953488ef8b28f52963752
      id: 1038839729
      PathAndIcons:
      - ElementName: Default Work Unit
        ObjectType: 12
      - ElementName: BgMusic
        ObjectType: 3
      Path: Default Work Unit\BgMusic
      maxAttenuation: 0
      maxDuration: -1
      minDuration: -1
    - name: chat_acercarse
      guid: 54d0456b5e79ef4b93df9a0fc55beec0
      id: 2945979271
      PathAndIcons:
      - ElementName: Default Work Unit
        ObjectType: 12
      - ElementName: chat_acercarse
        ObjectType: 3
      Path: Default Work Unit\chat_acercarse
      maxAttenuation: 0
      maxDuration: 0
      minDuration: 0
    - name: chat_agudo
      guid: 0eab8e40beb3b546ae56140d6490a789
      id: 1117139388
      PathAndIcons:
      - ElementName: Default Work Unit
        ObjectType: 12
      - ElementName: chat_agudo
        ObjectType: 3
      Path: Default Work Unit\chat_agudo
      maxAttenuation: 0
      maxDuration: 3492741
      minDuration: 2047551
    - name: chat_crowd
      guid: 2b86698a7cf8a045a18d6d1ab9199cdb
      id: 3006476517
      PathAndIcons:
      - ElementName: Default Work Unit
        ObjectType: 12
      - ElementName: chat_crowd
        ObjectType: 3
      Path: Default Work Unit\chat_crowd
      maxAttenuation: 0
      maxDuration: 0
      minDuration: 0
    - name: chat_fin
      guid: f8b84fdaf068dd4c92fcbcc65eee8191
      id: 2104715817
      PathAndIcons:
      - ElementName: Default Work Unit
        ObjectType: 12
      - ElementName: chat_fin
        ObjectType: 3
      Path: Default Work Unit\chat_fin
      maxAttenuation: 0
      maxDuration: 0
      minDuration: 0
    - name: chat_hombre
      guid: 9f7c48e63310b2469866a97b2ecc830f
      id: 4019894035
      PathAndIcons:
      - ElementName: Default Work Unit
        ObjectType: 12
      - ElementName: chat_hombre
        ObjectType: 3
      Path: Default Work Unit\chat_hombre
      maxAttenuation: 0
      maxDuration: 3442667
      minDuration: 2077333
    - name: chat_mujer
      guid: 35dceea910ae8c4e8f4ad8952047a9f3
      id: 1119971795
      PathAndIcons:
      - ElementName: Default Work Unit
        ObjectType: 12
      - ElementName: chat_mujer
        ObjectType: 3
      Path: Default Work Unit\chat_mujer
      maxAttenuation: 0
      maxDuration: 2842516
      minDuration: 2017030
    - name: damage_received
      guid: 82a272bd1a954e48ab4c0e6fff8e2d5a
      id: 4176958068
      PathAndIcons:
      - ElementName: Default Work Unit
        ObjectType: 12
      - ElementName: damage_received
        ObjectType: 3
      Path: Default Work Unit\damage_received
      maxAttenuation: 0
      maxDuration: 0
      minDuration: 0
    - name: enemy_attack
      guid: 7fc84a0bf04b5d4b912ff55abd6df79a
      id: 1781417190
      PathAndIcons:
      - ElementName: Default Work Unit
        ObjectType: 12
      - ElementName: enemy_attack
        ObjectType: 3
      Path: Default Work Unit\enemy_attack
      maxAttenuation: 0
      maxDuration: 0
      minDuration: 0
    - name: enemy_charge
      guid: 2200ae520655ca41b6a252daca8efd0a
      id: 434333010
      PathAndIcons:
      - ElementName: Default Work Unit
        ObjectType: 12
      - ElementName: enemy_charge
        ObjectType: 3
      Path: Default Work Unit\enemy_charge
      maxAttenuation: 0
      maxDuration: 0
      minDuration: 0
    - name: enemy_cooldown
      guid: 5610b8a1ea1fe646963ef069646af4a5
      id: 3582139221
      PathAndIcons:
      - ElementName: Default Work Unit
        ObjectType: 12
      - ElementName: enemy_cooldown
        ObjectType: 3
      Path: Default Work Unit\enemy_cooldown
      maxAttenuation: 0
      maxDuration: 0
      minDuration: 0
    - name: enemy_damage
      guid: f35d594bcfe9e84498fadb23787a30ff
      id: 555067025
      PathAndIcons:
      - ElementName: Default Work Unit
        ObjectType: 12
      - ElementName: enemy_damage
        ObjectType: 3
      Path: Default Work Unit\enemy_damage
      maxAttenuation: 0
      maxDuration: 0
      minDuration: 0
    - name: enemy_step
      guid: f03e14e4e4faad45b18f067c9351fbe1
      id: 3434276988
      PathAndIcons:
      - ElementName: Default Work Unit
        ObjectType: 12
      - ElementName: enemy_step
        ObjectType: 3
      Path: Default Work Unit\enemy_step
      maxAttenuation: 0
      maxDuration: 0
      minDuration: 0
    - name: enemy2_attack
      guid: 00747885c9b9384aa012a4c2facf150a
      id: 4216730694
      PathAndIcons:
      - ElementName: Default Work Unit
        ObjectType: 12
      - ElementName: enemy2_attack
        ObjectType: 3
      Path: Default Work Unit\enemy2_attack
      maxAttenuation: 0
      maxDuration: 0
      minDuration: 0
    - name: enemy2_charge
      guid: dc9c4ecbf83ab243bb17b1901fdd3768
      id: 3294103986
      PathAndIcons:
      - ElementName: Default Work Unit
        ObjectType: 12
      - ElementName: enemy2_charge
        ObjectType: 3
      Path: Default Work Unit\enemy2_charge
      maxAttenuation: 0
      maxDuration: 0
      minDuration: 0
    - name: enemy2_cooldown
      guid: 90a4fa93770062459d38f90c6c788a4a
      id: 3400463029
      PathAndIcons:
      - ElementName: Default Work Unit
        ObjectType: 12
      - ElementName: enemy2_cooldown
        ObjectType: 3
      Path: Default Work Unit\enemy2_cooldown
      maxAttenuation: 0
      maxDuration: 0
      minDuration: 0
    - name: enemy2_damage
      guid: e3828759f0af84488427cd20a6710c91
      id: 3456414961
      PathAndIcons:
      - ElementName: Default Work Unit
        ObjectType: 12
      - ElementName: enemy2_damage
        ObjectType: 3
      Path: Default Work Unit\enemy2_damage
      maxAttenuation: 0
      maxDuration: 0
      minDuration: 0
    - name: enemy2_step
      guid: 9cb56f109b3a0243aec0ae3ef72a3805
      id: 3746085596
      PathAndIcons:
      - ElementName: Default Work Unit
        ObjectType: 12
      - ElementName: enemy2_step
        ObjectType: 3
      Path: Default Work Unit\enemy2_step
      maxAttenuation: 0
      maxDuration: 0
      minDuration: 0
    - name: flecha_impacta
      guid: 13e85244b633d04b9bf791fc507b3476
      id: 969055488
      PathAndIcons:
      - ElementName: Default Work Unit
        ObjectType: 12
      - ElementName: flecha_impacta
        ObjectType: 3
      Path: Default Work Unit\flecha_impacta
      maxAttenuation: 0
      maxDuration: 0
      minDuration: 0
    - name: gancho_desplegado
      guid: 373cc9da9acbda49919c191a18c81140
      id: 1973361600
      PathAndIcons:
      - ElementName: Default Work Unit
        ObjectType: 12
      - ElementName: gancho_desplegado
        ObjectType: 3
      Path: Default Work Unit\gancho_desplegado
      maxAttenuation: 0
      maxDuration: 1313352
      minDuration: 1202959
    - name: gancho_impacta
      guid: 7eaf5caf2d408d4694db8b60128b4a61
      id: 2012658321
      PathAndIcons:
      - ElementName: Default Work Unit
        ObjectType: 12
      - ElementName: gancho_impacta
        ObjectType: 3
      Path: Default Work Unit\gancho_impacta
      maxAttenuation: 0
      maxDuration: 0
      minDuration: 0
    - name: gancho_retractando
      guid: 388de4db21abde42b46b0db59aa3e55d
      id: 70363567
      PathAndIcons:
      - ElementName: Default Work Unit
        ObjectType: 12
      - ElementName: gancho_retractando
        ObjectType: 3
      Path: Default Work Unit\gancho_retractando
      maxAttenuation: 0
      maxDuration: 0
      minDuration: 0
    - name: gancho_viajando
      guid: b05ddf5eb647d74f9d78bb6d73bd5e4e
      id: 3864224318
      PathAndIcons:
      - ElementName: Default Work Unit
        ObjectType: 12
      - ElementName: gancho_viajando
        ObjectType: 3
      Path: Default Work Unit\gancho_viajando
      maxAttenuation: 0
      maxDuration: 0
      minDuration: 0
    - name: Hook
      guid: 5baca1c89611f742b6df922513492b65
      id: 3147851416
      PathAndIcons:
      - ElementName: Default Work Unit
        ObjectType: 12
      - ElementName: Hook
        ObjectType: 3
      Path: Default Work Unit\Hook
      maxAttenuation: 0
      maxDuration: 1313352
      minDuration: 1202959
    - name: menu
      guid: 7773e4cf3b23ab47b3e22134e2622c68
      id: 2607556080
      PathAndIcons:
      - ElementName: Default Work Unit
        ObjectType: 12
      - ElementName: menu
        ObjectType: 3
      Path: Default Work Unit\menu
      maxAttenuation: 0
      maxDuration: 0
      minDuration: 0
    - name: menu_close
      guid: d18d3abf44cca848abcea5730102c345
      id: 626954121
      PathAndIcons:
      - ElementName: Default Work Unit
        ObjectType: 12
      - ElementName: menu_close
        ObjectType: 3
      Path: Default Work Unit\menu_close
      maxAttenuation: 0
      maxDuration: 0
      minDuration: 0
    - name: menu_newObj
      guid: 2c4061aa99c206458d3e50a41e68d645
      id: 3083125946
      PathAndIcons:
      - ElementName: Default Work Unit
        ObjectType: 12
      - ElementName: menu_newObj
        ObjectType: 3
      Path: Default Work Unit\menu_newObj
      maxAttenuation: 0
      maxDuration: 0
      minDuration: 0
    - name: menu_obj
      guid: 43141e3d70a45c45b95c3001d8e26d5f
      id: 3103987990
      PathAndIcons:
      - ElementName: Default Work Unit
        ObjectType: 12
      - ElementName: menu_obj
        ObjectType: 3
      Path: Default Work Unit\menu_obj
      maxAttenuation: 0
      maxDuration: 0
      minDuration: 0
    - name: menu_open
      guid: da4cb828a1c3e2498356e201404640b0
      id: 1287511387
      PathAndIcons:
      - ElementName: Default Work Unit
        ObjectType: 12
      - ElementName: menu_open
        ObjectType: 3
      Path: Default Work Unit\menu_open
      maxAttenuation: 0
      maxDuration: 0
      minDuration: 0
    - name: menu_roll
      guid: 930b3a9f704f63458980922d9bacc9f2
      id: 240421090
      PathAndIcons:
      - ElementName: Default Work Unit
        ObjectType: 12
      - ElementName: menu_roll
        ObjectType: 3
      Path: Default Work Unit\menu_roll
      maxAttenuation: 0
      maxDuration: 1359333
      minDuration: 1359333
    - name: menu_select
      guid: ee346f529360f344bf9cbfcc210bf044
      id: 4203375351
      PathAndIcons:
      - ElementName: Default Work Unit
        ObjectType: 12
      - ElementName: menu_select
        ObjectType: 3
      Path: Default Work Unit\menu_select
      maxAttenuation: 0
      maxDuration: 1359333
      minDuration: 1359333
    - name: music_combat
      guid: bf5db31ef1c2444eab1eb06ab7c6f77f
      id: 3944980085
      PathAndIcons:
      - ElementName: Default Work Unit
        ObjectType: 12
      - ElementName: music_combat
        ObjectType: 3
      Path: Default Work Unit\music_combat
      maxAttenuation: 0
      maxDuration: 0
      minDuration: 0
    - name: music_contemplative
      guid: 6a7756764bf13048be7b929d24a83b6d
      id: 3409904094
      PathAndIcons:
      - ElementName: Default Work Unit
        ObjectType: 12
      - ElementName: music_contemplative
        ObjectType: 3
      Path: Default Work Unit\music_contemplative
      maxAttenuation: 0
      maxDuration: 0
      minDuration: 0
    - name: music_conversation
      guid: 0c2c6428151818408340fe42625914ed
      id: 658627576
      PathAndIcons:
      - ElementName: Default Work Unit
        ObjectType: 12
      - ElementName: music_conversation
        ObjectType: 3
      Path: Default Work Unit\music_conversation
      maxAttenuation: 0
      maxDuration: 0
      minDuration: 0
    - name: music_danger
      guid: 0ecbe9f1175d6147ab5927fcea0d46f2
      id: 1302659820
      PathAndIcons:
      - ElementName: Default Work Unit
        ObjectType: 12
      - ElementName: music_danger
        ObjectType: 3
      Path: Default Work Unit\music_danger
      maxAttenuation: 0
      maxDuration: 0
      minDuration: 0
    - name: music_emotive
      guid: bd74706f73d0a340b9b1424ac3406bf2
      id: 2672450968
      PathAndIcons:
      - ElementName: Default Work Unit
        ObjectType: 12
      - ElementName: music_emotive
        ObjectType: 3
      Path: Default Work Unit\music_emotive
      maxAttenuation: 0
      maxDuration: 0
      minDuration: 0
    - name: music_main
      guid: 003894dcd76a484483675f99a91c4a2d
      id: 1615767906
      PathAndIcons:
      - ElementName: Default Work Unit
        ObjectType: 12
      - ElementName: music_main
        ObjectType: 3
      Path: Default Work Unit\music_main
      maxAttenuation: 0
      maxDuration: 0
      minDuration: 0
    - name: music_sad
      guid: dc9348af453c584cae349b07995a04f3
      id: 2951814051
      PathAndIcons:
      - ElementName: Default Work Unit
        ObjectType: 12
      - ElementName: music_sad
        ObjectType: 3
      Path: Default Work Unit\music_sad
      maxAttenuation: 0
      maxDuration: 0
      minDuration: 0
    - name: music_silence
      guid: 052fd01452dcbd4ea611be0b68cba213
      id: 3010836978
      PathAndIcons:
      - ElementName: Default Work Unit
        ObjectType: 12
      - ElementName: music_silence
        ObjectType: 3
      Path: Default Work Unit\music_silence
      maxAttenuation: 0
      maxDuration: 0
      minDuration: 0
    - name: Pasos
      guid: 62149e7759831741b1af2a3cad224efc
      id: 3026462669
      PathAndIcons:
      - ElementName: Default Work Unit
        ObjectType: 12
      - ElementName: Pasos
        ObjectType: 3
      Path: Default Work Unit\Pasos
      maxAttenuation: 0
      maxDuration: 1240792
      minDuration: 283127
    - name: read
      guid: aa5c5003707e6d4f969c77bd2b9a57a5
      id: 2579596241
      PathAndIcons:
      - ElementName: Default Work Unit
        ObjectType: 12
      - ElementName: read
        ObjectType: 3
      Path: Default Work Unit\read
      maxAttenuation: 0
      maxDuration: 1162700
      minDuration: 728994
  RtpcWwu:
  - PhysicalPath: Game Parameters\Default Work Unit.wwu
    ParentPhysicalPath: 
    guid: c55f97576e981a4f81be2c8b2320dc6a
    GuidInternal: 
    m_lastTime: -8586277494351457933
    List: []
  - PhysicalPath: Game Parameters\Factory Motion.wwu
    ParentPhysicalPath: 
    guid: 225213d7dbd1d042adc0930743567776
    GuidInternal: 
    m_lastTime: -8586277496126070612
    List:
    - name: Playback_Rate
      guid: e37e38283ac11643b9c3db5c521624af
      id: 1524500807
      PathAndIcons:
      - ElementName: Factory Motion
        ObjectType: 12
      - ElementName: Playback_Rate
        ObjectType: 13
      Path: Factory Motion\Playback_Rate
    - name: RPM
      guid: 05aa129177f5fd449f4e4424158129e6
      id: 796049864
      PathAndIcons:
      - ElementName: Factory Motion
        ObjectType: 12
      - ElementName: RPM
        ObjectType: 13
      Path: Factory Motion\RPM
  - PhysicalPath: Game Parameters\Factory SoundSeed Air Game Syncs.wwu
    ParentPhysicalPath: 
    guid: 5577163b42fb8b4598bf96f557afb3b9
    GuidInternal: 
    m_lastTime: -8586277496141128668
    List:
    - name: SS_Air_Fear
      guid: 59062ef746431c4ea1b1dab46a05101e
      id: 1351367891
      PathAndIcons:
      - ElementName: Factory SoundSeed Air Game Syncs
        ObjectType: 12
      - ElementName: SS_Air_Fear
        ObjectType: 13
      Path: Factory SoundSeed Air Game Syncs\SS_Air_Fear
    - name: SS_Air_Freefall
      guid: 37fe2d2f9e4f944d83d853cca39781ad
      id: 3002758120
      PathAndIcons:
      - ElementName: Factory SoundSeed Air Game Syncs
        ObjectType: 12
      - ElementName: SS_Air_Freefall
        ObjectType: 13
      Path: Factory SoundSeed Air Game Syncs\SS_Air_Freefall
    - name: SS_Air_Fury
      guid: dc79aea23acaba4696529986c322a87b
      id: 1029930033
      PathAndIcons:
      - ElementName: Factory SoundSeed Air Game Syncs
        ObjectType: 12
      - ElementName: SS_Air_Fury
        ObjectType: 13
      Path: Factory SoundSeed Air Game Syncs\SS_Air_Fury
    - name: SS_Air_Month
      guid: 45b4e209a3c47f44b3ca818a1d925ef7
      id: 2648548617
      PathAndIcons:
      - ElementName: Factory SoundSeed Air Game Syncs
        ObjectType: 12
      - ElementName: SS_Air_Month
        ObjectType: 13
      Path: Factory SoundSeed Air Game Syncs\SS_Air_Month
    - name: SS_Air_Presence
      guid: 1a81b7e32f7b0f49b44f5fe51b468041
      id: 3847924954
      PathAndIcons:
      - ElementName: Factory SoundSeed Air Game Syncs
        ObjectType: 12
      - ElementName: SS_Air_Presence
        ObjectType: 13
      Path: Factory SoundSeed Air Game Syncs\SS_Air_Presence
    - name: SS_Air_RPM
      guid: ab9048a3d5b92645a64d5290c43ef2dc
      id: 822163944
      PathAndIcons:
      - ElementName: Factory SoundSeed Air Game Syncs
        ObjectType: 12
      - ElementName: SS_Air_RPM
        ObjectType: 13
      Path: Factory SoundSeed Air Game Syncs\SS_Air_RPM
    - name: SS_Air_Size
      guid: efeb291393a12e47a38c64668b494879
      id: 3074696722
      PathAndIcons:
      - ElementName: Factory SoundSeed Air Game Syncs
        ObjectType: 12
      - ElementName: SS_Air_Size
        ObjectType: 13
      Path: Factory SoundSeed Air Game Syncs\SS_Air_Size
    - name: SS_Air_Storm
      guid: db8c3fe9d1063747acaf7cd44bbed783
      id: 3715662592
      PathAndIcons:
      - ElementName: Factory SoundSeed Air Game Syncs
        ObjectType: 12
      - ElementName: SS_Air_Storm
        ObjectType: 13
      Path: Factory SoundSeed Air Game Syncs\SS_Air_Storm
    - name: SS_Air_TimeOfDay
      guid: 2ca76f537e8c8b4cae03ef34fdadc314
      id: 3203397129
      PathAndIcons:
      - ElementName: Factory SoundSeed Air Game Syncs
        ObjectType: 12
      - ElementName: SS_Air_TimeOfDay
        ObjectType: 13
      Path: Factory SoundSeed Air Game Syncs\SS_Air_TimeOfDay
    - name: SS_Air_Turbulence
      guid: 197ba8edaa73a0409f192073606db710
      id: 4160247818
      PathAndIcons:
      - ElementName: Factory SoundSeed Air Game Syncs
        ObjectType: 12
      - ElementName: SS_Air_Turbulence
        ObjectType: 13
      Path: Factory SoundSeed Air Game Syncs\SS_Air_Turbulence
  StateWwu:
  - PhysicalPath: States\Default Work Unit.wwu
    ParentPhysicalPath: 
    guid: 324c5490fd19a4438451fda499243821
    GuidInternal: 
    m_lastTime: -8586194508110251772
    List:
    - name: ambiente
      guid: 8577c575c2d595478c1010b502396cf2
      id: 4095160060
      PathAndIcons:
      - ElementName: Default Work Unit
        ObjectType: 12
      - ElementName: ambiente
        ObjectType: 9
      Path: Default Work Unit\ambiente
      values:
      - name: bosque
        guid: ac423608663ea545bf62770b7cbc2500
        id: 1641284458
        PathAndIcons:
        - ElementName: bosque
          ObjectType: 8
      - name: None
        guid: 727e8cace3ecb14d85b07d3b0a9ee647
        id: 748895195
        PathAndIcons:
        - ElementName: None
          ObjectType: 8
      - name: viento
        guid: 914ce8b915aa8148a1951150c269e849
        id: 775390300
        PathAndIcons:
        - ElementName: viento
          ObjectType: 8
      ValueGuids: []
      ValueIcons: []
      valuesInternal: []
    - name: menu
      guid: 8379c698c7dbd543a445e127f2207d07
      id: 2607556080
      PathAndIcons:
      - ElementName: Default Work Unit
        ObjectType: 12
      - ElementName: menu
        ObjectType: 9
      Path: Default Work Unit\menu
      values:
      - name: None
        guid: 6220495da7bcf64387723f3b7b09a780
        id: 748895195
        PathAndIcons:
        - ElementName: None
          ObjectType: 8
      - name: off
        guid: 3d5bce7cf90bf54dba17a2aeaeccf7c3
        id: 930712164
        PathAndIcons:
        - ElementName: off
          ObjectType: 8
      - name: on
        guid: e848696230b7114b849b4ece4dcb1253
        id: 1651971902
        PathAndIcons:
        - ElementName: on
          ObjectType: 8
      ValueGuids: []
      ValueIcons: []
      valuesInternal: []
  SwitchWwu:
  - PhysicalPath: Switches\Default Work Unit.wwu
    ParentPhysicalPath: 
    guid: af5ffdb4adaf7a458256889dab5751de
    GuidInternal: 
    m_lastTime: -8586195378591044518
    List:
    - name: MENU
      guid: f458177ccef8ef499b3977e6b027b506
      id: 2607556080
      PathAndIcons:
      - ElementName: Default Work Unit
        ObjectType: 12
      - ElementName: MENU
        ObjectType: 11
      Path: Default Work Unit\MENU
      values:
      - name: ingame
        guid: b9d55501a998f242821fde1175fe3d3a
        id: 984691642
        PathAndIcons:
        - ElementName: ingame
          ObjectType: 10
      - name: menu
        guid: 9aa4b077c6b66d4a966cc0288ef15123
        id: 2607556080
        PathAndIcons:
        - ElementName: menu
          ObjectType: 10
      ValueGuids: []
      ValueIcons: []
      valuesInternal: []
    - name: musica_ingame
      guid: cca93bdddd9d104e8a7a69d2f366aa1a
      id: 109925333
      PathAndIcons:
      - ElementName: Default Work Unit
        ObjectType: 12
      - ElementName: musica_ingame
        ObjectType: 11
      Path: Default Work Unit\musica_ingame
      values:
      - name: combat
        guid: e2d1769bc9cf5043bcaffe7c49a8da90
        id: 2764240573
        PathAndIcons:
        - ElementName: combat
          ObjectType: 10
      - name: contemplative
        guid: 5c0fe3fe1ce93f49bf681bc1b02aa90c
        id: 3961547910
        PathAndIcons:
        - ElementName: contemplative
          ObjectType: 10
      - name: conversation
        guid: e64a6f2ee5d5834b97b354933ed97198
        id: 999367376
        PathAndIcons:
        - ElementName: conversation
          ObjectType: 10
      - name: danger
        guid: 744791bafdceb14aa665bd7dc7d11e6c
        id: 4174463524
        PathAndIcons:
        - ElementName: danger
          ObjectType: 10
      - name: emotive
        guid: 732a225caee4094f95aafec7422d7224
        id: 2760390432
        PathAndIcons:
        - ElementName: emotive
          ObjectType: 10
      - name: main
        guid: eaca835e26f83e449f220f0fef750087
        id: 3161908922
        PathAndIcons:
        - ElementName: main
          ObjectType: 10
      - name: silence
        guid: 16a65cc79fc67845aa021e13d7c6ed47
        id: 3041563226
        PathAndIcons:
        - ElementName: silence
          ObjectType: 10
      ValueGuids: []
      ValueIcons: []
      valuesInternal: []
  TriggerWwu:
  - PhysicalPath: Triggers\Default Work Unit.wwu
    ParentPhysicalPath: 
    guid: 3b6dfa0a132c8842857885009ec6e176
    GuidInternal: 
    m_lastTime: -8586277494351937446
    List: []
  ExpandedItems:
  - /Rostwall
  - /Rostwall/Switches
  - /Rostwall/Switches/Default Work Unit
  - /Rostwall/Switches/Default Work Unit/MENU
  - /Rostwall/Switches/Default Work Unit/musica_ingame
  autoPopulateEnabled: 1
  CurrentPluginConfig: 
